Aggregating and Analyzing Data with dplyr – Intro to R and RStudio for Genomics
…
Luckily, the tidyverse has another package to help us: tibble.

Using the function as_tibble() will convert our data.frame object into the 
slightly friendlier "tibble" format, which is officially known as a tbl_df.

Tibbles have better formatting and printing and stricter handling of data types, 
and are the ‘central data structure’ for the tidyverse set of packages. 
They also help make our data manipulation much easier!

We use our variants data frame as the argument

variants <- as_tibble(variants)
select(variants, sample_id, REF, ALT, DP)

# A tibble: 801 x 4
   sample_id  REF                    ALT                                      DP
   <chr>      <chr>                  <chr>                                 <int>
 1 SRR2584863 T                      G                                         4
 2 SRR2584863 G                      T                                         6
 3 SRR2584863 G                      T                                        10
 4 SRR2584863 CTTTTTTT               CTTTTTTTT                                12
 5 SRR2584863 CCGC                   CCGCGC                                   10
 6 SRR2584863 C                      T                                        10
 7 SRR2584863 C                      A                                         8
 8 SRR2584863 G                      A                                        11
 9 SRR2584863 ACAGCCAGCCAGCCAGCCAGC… ACAGCCAGCCAGCCAGCCAGCCAGCCAGCCAGCCAG…     3
10 SRR2584863 AT                     ATT                                       7
# … with 791 more rows

This looks much better!

How to filter() rows

To choose rows, use filter():

filter(variants, sample_id == "SRR2584863")

# A tibble: 25 x 29
   sample_id CHROM    POS ID    REF   ALT    QUAL FILTER INDEL   IDV    IMF
   <chr>     <chr>  <int> <lgl> <chr> <chr> <dbl> <lgl>  <lgl> <int>  <dbl>
 1 SRR25848… CP00… 9.97e3 NA    T     G        91 NA     FALSE    NA NA    
 2 SRR25848… CP00… 2.63e5 NA    G     T        85 NA     FALSE    NA NA    
 3 SRR25848… CP00… 2.82e5 NA    G     T       217 NA     FALSE    NA NA    
 4 SRR25848… CP00… 4.33e5 NA    CTTT… CTTT…    64 NA     TRUE     12  1    
 5 SRR25848… CP00… 4.74e5 NA    CCGC  CCGC…   228 NA     TRUE      9  0.9  
 6 SRR25848… CP00… 6.49e5 NA    C     T       210 NA     FALSE    NA NA    
 7 SRR25848… CP00… 1.33e6 NA    C     A       178 NA     FALSE    NA NA    
 8 SRR25848… CP00… 1.73e6 NA    G     A       225 NA     FALSE    NA NA    
 9 SRR25848… CP00… 2.10e6 NA    ACAG… ACAG…    56 NA     TRUE      2  0.667
10 SRR25848… CP00… 2.33e6 NA    AT    ATT     167 NA     TRUE      7  1    
# … with 15 more rows, and 18 more variables: DP <int>, VDB <dbl>, RPB <dbl>,
#   MQB <dbl>, BQB <dbl>, MQSB <dbl>, SGB <dbl>, MQ0F <dbl>, ICB <lgl>,
#   HOB <lgl>, AC <int>, AN <int>, DP4 <chr>, MQ <int>, Indiv <chr>,
#   gt_PL <chr>, gt_GT <int>, gt_GT_alleles <chr>
…
Pipes let you take the output of one function and send it directly to the next, 
which is useful when you need to many things to the same data set. It was
possible to do this before pipes were added to R, but it was 
much messier and more difficult.

Pipes in R look like %>% and are made available via the magrittr package, 
which is installed as part of dplyr. If you use RStudio, you can type the pipe 
with Ctrl + Shift + M if you’re using a PC,
or Cmd + Shift + M if you’re using a Mac.

variants %>%
  filter(sample_id == "SRR2584863") %>%
  select(REF, ALT, DP)

# A tibble: 25 x 3
   REF                        ALT                                             DP
   <chr>                      <chr>                                        <int>
 1 T                          G                                                4
 2 G                          T                                                6
 3 G                          T                                               10
 4 CTTTTTTT                   CTTTTTTTT                                       12
 5 CCGC                       CCGCGC                                          10
 6 C                          T                                               10
 7 C                          A                                                8
 8 G                          A                                               11
 9 ACAGCCAGCCAGCCAGCCAGCCAGC… ACAGCCAGCCAGCCAGCCAGCCAGCCAGCCAGCCAGCCAGCCA…     3
10 AT                         ATT                                              7
# … with 15 more rows
…
